<?xml version="1.0" encoding="utf-8"?>
<!-- Generator: Adobe Illustrator 18.0.0, SVG Export Plug-In . SVG Version: 6.00 Build 0)  -->
<!DOCTYPE svg PUBLIC "-//W3C//DTD SVG 1.1//EN" "http://www.w3.org/Graphics/SVG/1.1/DTD/svg11.dtd">
<svg version="1.1" id="Layer_1" xmlns="http://www.w3.org/2000/svg" xmlns:xlink="http://www.w3.org/1999/xlink" x="0px" y="0px"
	 viewBox="0 0 92.8 138.9" enable-background="new 0 0 92.8 138.9" xml:space="preserve">
<polygon fill="none" stroke="#B09743" stroke-width="0.75" stroke-linecap="round" stroke-linejoin="round" points="92.4,138.5 
	69.4,115.6 46.4,138.5 "/>
<polygon fill="none" stroke="#B09743" stroke-width="0.75" stroke-linecap="round" stroke-linejoin="round" points="46.5,138.4 
	69.5,115.4 46.5,92.4 "/>
<polygon fill="none" stroke="#B09743" stroke-width="0.75" stroke-linecap="round" stroke-linejoin="round" points="0.4,92.5 
	23.4,115.4 46.4,92.5 "/>
<polygon fill="none" stroke="#B09743" stroke-width="0.75" stroke-linecap="round" stroke-linejoin="round" points="46.4,92.5 
	23.5,115.5 46.4,138.5 "/>
<polygon fill="none" stroke="#B09743" stroke-width="0.75" stroke-linecap="round" stroke-linejoin="round" points="46.4,138.5 
	23.4,115.6 0.4,138.5 "/>
<polygon fill="none" stroke="#B09743" stroke-width="0.75" stroke-linecap="round" stroke-linejoin="round" points="0.5,138.4 
	23.5,115.4 0.5,92.4 "/>
<polygon fill="none" stroke="#B09743" stroke-width="0.75" stroke-linecap="round" stroke-linejoin="round" points="0.4,0.4 
	23.3,23.4 0.4,46.4 "/>
<polygon fill="none" stroke="#B09743" stroke-width="0.75" stroke-linecap="round" stroke-linejoin="round" points="46.4,46.5 
	23.4,69.4 0.4,46.5 "/>
<polygon fill="none" stroke="#B09743" stroke-width="0.75" stroke-linecap="round" stroke-linejoin="round" points="0.4,46.5 
	23.3,69.5 0.4,92.5 "/>
</svg>
