<?xml version="1.0" encoding="utf-8"?>
<!-- Generator: Adobe Illustrator 18.0.0, SVG Export Plug-In . SVG Version: 6.00 Build 0)  -->
<!DOCTYPE svg PUBLIC "-//W3C//DTD SVG 1.1//EN" "http://www.w3.org/Graphics/SVG/1.1/DTD/svg11.dtd">
<svg version="1.1" id="Layer_1" xmlns="http://www.w3.org/2000/svg" xmlns:xlink="http://www.w3.org/1999/xlink" x="0px" y="0px"
	 viewBox="0 0 184.3 139" enable-background="new 0 0 184.3 139" xml:space="preserve">
<polygon fill="none" stroke="#B09743" stroke-width="0.75" stroke-linecap="round" stroke-linejoin="round" points="138,0.5 
	161,23.4 184,0.5 "/>
<polygon fill="none" stroke="#B09743" stroke-width="0.75" stroke-linecap="round" stroke-linejoin="round" points="184,0.5 
	161.1,23.5 184,46.5 "/>
<polygon fill="none" stroke="#B09743" stroke-width="0.75" stroke-linecap="round" stroke-linejoin="round" points="184,46.5 
	161,23.5 138,46.5 "/>
<polygon fill="none" stroke="#B09743" stroke-width="0.75" stroke-linecap="round" stroke-linejoin="round" points="138.1,46.4 
	161.1,23.4 138.1,0.4 "/>
<polygon fill="none" stroke="#B09743" stroke-width="0.75" stroke-linecap="round" stroke-linejoin="round" points="92,0.5 
	115,23.4 138,0.5 "/>
<polygon fill="none" stroke="#B09743" stroke-width="0.75" stroke-linecap="round" stroke-linejoin="round" points="138,0.5 
	115,23.5 138,46.5 "/>
<polygon fill="none" stroke="#B09743" stroke-width="0.75" stroke-linecap="round" stroke-linejoin="round" points="138,46.5 
	115,23.5 92,46.5 "/>
<polygon fill="none" stroke="#B09743" stroke-width="0.75" stroke-linecap="round" stroke-linejoin="round" points="92.1,46.4 
	115,23.4 92.1,0.4 "/>
<polygon fill="none" stroke="#B09743" stroke-width="0.75" stroke-linecap="round" stroke-linejoin="round" points="46.4,0.5 
	69.4,23.4 92.4,0.5 "/>
<polygon fill="none" stroke="#B09743" stroke-width="0.75" stroke-linecap="round" stroke-linejoin="round" points="92.4,0.5 
	69.5,23.5 92.4,46.5 "/>
<polygon fill="none" stroke="#B09743" stroke-width="0.75" stroke-linecap="round" stroke-linejoin="round" points="92.4,46.5 
	69.4,23.5 46.4,46.5 "/>
<polygon fill="none" stroke="#B09743" stroke-width="0.75" stroke-linecap="round" stroke-linejoin="round" points="46.5,46.4 
	69.5,23.4 46.5,0.4 "/>
<polygon fill="none" stroke="#B09743" stroke-width="0.75" stroke-linecap="round" stroke-linejoin="round" points="0.4,0.5 
	23.4,23.4 46.4,0.5 "/>
<polygon fill="none" stroke="#B09743" stroke-width="0.75" stroke-linecap="round" stroke-linejoin="round" points="46.4,0.5 
	23.5,23.5 46.4,46.5 "/>
<polygon fill="none" stroke="#B09743" stroke-width="0.75" stroke-linecap="round" stroke-linejoin="round" points="46.4,46.5 
	23.4,23.5 0.4,46.5 "/>
<polygon fill="none" stroke="#B09743" stroke-width="0.75" stroke-linecap="round" stroke-linejoin="round" points="0.5,46.4 
	23.5,23.4 0.5,0.4 "/>
<polygon fill="none" stroke="#B09743" stroke-width="0.75" stroke-linecap="round" stroke-linejoin="round" points="138,46.5 
	161,69.5 184,46.5 "/>
<polygon fill="none" stroke="#B09743" stroke-width="0.75" stroke-linecap="round" stroke-linejoin="round" points="184,46.5 
	161.1,69.5 184,92.6 "/>
<polygon fill="none" stroke="#B09743" stroke-width="0.75" stroke-linecap="round" stroke-linejoin="round" points="184,92.6 
	161,69.6 138,92.6 "/>
<polygon fill="none" stroke="#B09743" stroke-width="0.75" stroke-linecap="round" stroke-linejoin="round" points="138.1,92.5 
	161.1,69.5 138.1,46.5 "/>
<polygon fill="none" stroke="#B09743" stroke-width="0.75" stroke-linecap="round" stroke-linejoin="round" points="92,46.5 
	115,69.5 138,46.5 "/>
<polygon fill="none" stroke="#B09743" stroke-width="0.75" stroke-linecap="round" stroke-linejoin="round" points="138,46.5 
	115,69.5 138,92.6 "/>
<polygon fill="none" stroke="#B09743" stroke-width="0.75" stroke-linecap="round" stroke-linejoin="round" points="138,92.6 
	115,69.6 92,92.6 "/>
<polygon fill="none" stroke="#B09743" stroke-width="0.75" stroke-linecap="round" stroke-linejoin="round" points="92.1,92.5 
	115,69.5 92.1,46.5 "/>
<polygon fill="none" stroke="#B09743" stroke-width="0.75" stroke-linecap="round" stroke-linejoin="round" points="138,92.6 
	161,115.6 184,92.6 "/>
<polygon fill="none" stroke="#B09743" stroke-width="0.75" stroke-linecap="round" stroke-linejoin="round" points="138.1,138.6 
	161.1,115.6 138.1,92.6 "/>
<polygon fill="none" stroke="#B09743" stroke-width="0.75" stroke-linecap="round" stroke-linejoin="round" points="92,92.6 
	115,115.6 138,92.6 "/>
<polygon fill="none" stroke="#B09743" stroke-width="0.75" stroke-linecap="round" stroke-linejoin="round" points="138,92.6 
	115,115.6 138,138.6 "/>
<polygon fill="none" stroke="#B09743" stroke-width="0.75" stroke-linecap="round" stroke-linejoin="round" points="92.1,138.6 
	115,115.6 92.1,92.6 "/>
<polygon fill="none" stroke="#B09743" stroke-width="0.75" stroke-linecap="round" stroke-linejoin="round" points="46.4,46.5 
	69.4,69.5 92.4,46.5 "/>
<polygon fill="none" stroke="#B09743" stroke-width="0.75" stroke-linecap="round" stroke-linejoin="round" points="92.4,46.5 
	69.5,69.5 92.4,92.6 "/>
<polygon fill="none" stroke="#B09743" stroke-width="0.75" stroke-linecap="round" stroke-linejoin="round" points="92.4,92.6 
	69.4,69.6 46.4,92.6 "/>
<polygon fill="none" stroke="#B09743" stroke-width="0.75" stroke-linecap="round" stroke-linejoin="round" points="46.5,92.5 
	69.5,69.5 46.5,46.5 "/>
<polygon fill="none" stroke="#B09743" stroke-width="0.75" stroke-linecap="round" stroke-linejoin="round" points="46.4,92.6 
	69.4,115.6 92.4,92.6 "/>
<polygon fill="none" stroke="#B09743" stroke-width="0.75" stroke-linecap="round" stroke-linejoin="round" points="92.4,92.6 
	69.5,115.6 92.4,138.6 "/>
<polygon fill="none" stroke="#B09743" stroke-width="0.75" stroke-linecap="round" stroke-linejoin="round" points="46.5,138.6 
	69.5,115.6 46.5,92.6 "/>
<polygon fill="none" stroke="#B09743" stroke-width="0.75" stroke-linecap="round" stroke-linejoin="round" points="0.4,46.5 
	23.4,69.5 46.4,46.5 "/>
<polygon fill="none" stroke="#B09743" stroke-width="0.75" stroke-linecap="round" stroke-linejoin="round" points="46.4,46.5 
	23.5,69.5 46.4,92.6 "/>
<polygon fill="none" stroke="#B09743" stroke-width="0.75" stroke-linecap="round" stroke-linejoin="round" points="0.4,92.6 
	23.4,115.6 46.4,92.6 "/>
<polygon fill="none" stroke="#B09743" stroke-width="0.75" stroke-linecap="round" stroke-linejoin="round" points="46.4,92.6 
	23.5,115.6 46.4,138.6 "/>
</svg>
