<?xml version="1.0" encoding="utf-8"?>
<!-- Generator: Adobe Illustrator 18.0.0, SVG Export Plug-In . SVG Version: 6.00 Build 0)  -->
<!DOCTYPE svg PUBLIC "-//W3C//DTD SVG 1.1//EN" "http://www.w3.org/Graphics/SVG/1.1/DTD/svg11.dtd">
<svg version="1.1" id="Layer_1" xmlns="http://www.w3.org/2000/svg" xmlns:xlink="http://www.w3.org/1999/xlink" x="0px" y="0px"
	 viewBox="0 0 310 144" enable-background="new 0 0 310 144" xml:space="preserve">
<polygon fill="#FFFFFF" points="0.8,0 0,96.8 70.5,96.8 70.5,144 310,144 306.6,134.1 294.3,107.9 293.5,84.7 285.3,70.8 
	288.2,65.7 258.5,14.1 238.3,7.4 217.4,12 196.9,0 "/>
</svg>
