<?xml version="1.0" encoding="utf-8"?>
<!-- Generator: Adobe Illustrator 18.0.0, SVG Export Plug-In . SVG Version: 6.00 Build 0)  -->
<!DOCTYPE svg PUBLIC "-//W3C//DTD SVG 1.1//EN" "http://www.w3.org/Graphics/SVG/1.1/DTD/svg11.dtd">
<svg version="1.1" id="Layer_1" xmlns="http://www.w3.org/2000/svg" xmlns:xlink="http://www.w3.org/1999/xlink" x="0px" y="0px"
	 viewBox="442 442 70 70" enable-background="new 442 442 70 70" xml:space="preserve">
<path id="certificate-2" fill="#FFFFFF" d="M511.6,470.6c0.3-0.7,0.4-1.5,0.4-2.2c0-2.2-1.1-4.4-3.1-5.8c-6.3-4.4-5.4-3.3-7.8-10.3
	c-1-3-3.8-5-7.1-5c0,0,0,0,0,0c-7.7,0-6.4,0.4-12.6-3.9c-1.3-0.9-2.8-1.4-4.4-1.4c-1.5,0-3.1,0.5-4.4,1.4c-6.3,4.4-4.9,4-12.6,3.9
	c0,0,0,0,0,0c-3.2,0-6.1,2-7.1,5c-2.4,7.1-1.6,6-7.8,10.3c-2,1.4-3.1,3.5-3.1,5.8c0,0.7,0.1,1.5,0.4,2.2c2.4,7.1,2.4,5.7,0,12.8
	c-0.2,0.7-0.4,1.5-0.4,2.2c0,2.2,1.1,4.4,3.1,5.8c6.3,4.3,5.4,3.2,7.8,10.3c1,3,3.8,5,7.1,5c0,0,0,0,0,0c7.7,0,6.4-0.4,12.6,3.9
	c1.3,0.9,2.8,1.4,4.4,1.4c1.5,0,3.1-0.5,4.4-1.4c6.2-4.4,4.9-4,12.6-3.9c0,0,0,0,0,0c3.2,0,6.1-2,7.1-5c2.4-7.1,1.5-6,7.8-10.3
	c2-1.4,3.1-3.5,3.1-5.8c0-0.7-0.1-1.5-0.4-2.2C509.2,476.3,509.2,477.7,511.6,470.6z M477,501.8c-13.7,0-24.8-11.1-24.8-24.8
	c0-13.7,11.1-24.8,24.8-24.8c13.7,0,24.8,11.1,24.8,24.8C501.8,490.7,490.7,501.8,477,501.8z M473.4,488.5l-10.9-10.6l4.5-4.5
	l6.4,6.1l13.7-14.1l4.5,4.5L473.4,488.5z"/>
</svg>
