<?xml version="1.0" encoding="utf-8"?>
<!-- Generator: Adobe Illustrator 18.0.0, SVG Export Plug-In . SVG Version: 6.00 Build 0)  -->
<!DOCTYPE svg PUBLIC "-//W3C//DTD SVG 1.1//EN" "http://www.w3.org/Graphics/SVG/1.1/DTD/svg11.dtd">
<svg version="1.1" id="Layer_1" xmlns="http://www.w3.org/2000/svg" xmlns:xlink="http://www.w3.org/1999/xlink" x="0px" y="0px"
	 viewBox="0 0 110.1 46" enable-background="new 0 0 110.1 46" xml:space="preserve">
<polygon fill="#FFFFFF" points="0,0 0,46 22.9,23 "/>
<polygon fill="#FFFFFF" points="43.6,0 43.6,46 66.5,23 "/>
<polygon fill="#FFFFFF" points="87.2,0 87.2,46 110.1,23 "/>
</svg>
