<?xml version="1.0" encoding="utf-8"?>
<!-- Generator: Adobe Illustrator 18.0.0, SVG Export Plug-In . SVG Version: 6.00 Build 0)  -->
<!DOCTYPE svg PUBLIC "-//W3C//DTD SVG 1.1//EN" "http://www.w3.org/Graphics/SVG/1.1/DTD/svg11.dtd">
<svg version="1.1" id="Layer_1" xmlns="http://www.w3.org/2000/svg" xmlns:xlink="http://www.w3.org/1999/xlink" x="0px" y="0px"
	 viewBox="0 0 92.8 139" enable-background="new 0 0 92.8 139" xml:space="preserve">
<polygon fill="none" stroke="#B09743" stroke-width="0.75" stroke-linecap="round" stroke-linejoin="round" points="92.4,138.6 
	69.4,115.7 46.4,138.6 "/>
<polygon fill="none" stroke="#B09743" stroke-width="0.75" stroke-linecap="round" stroke-linejoin="round" points="46.5,138.6 
	69.5,115.6 46.5,92.6 "/>
<polygon fill="none" stroke="#B09743" stroke-width="0.75" stroke-linecap="round" stroke-linejoin="round" points="0.4,46.5 
	23.4,69.4 46.4,46.5 "/>
<polygon fill="none" stroke="#B09743" stroke-width="0.75" stroke-linecap="round" stroke-linejoin="round" points="0.4,92.6 
	23.4,115.6 46.4,92.6 "/>
<polygon fill="none" stroke="#B09743" stroke-width="0.75" stroke-linecap="round" stroke-linejoin="round" points="46.4,92.6 
	23.5,115.6 46.4,138.6 "/>
<polygon fill="none" stroke="#B09743" stroke-width="0.75" stroke-linecap="round" stroke-linejoin="round" points="46.4,138.6 
	23.4,115.7 0.4,138.6 "/>
<polygon fill="none" stroke="#B09743" stroke-width="0.75" stroke-linecap="round" stroke-linejoin="round" points="0.5,46.4 
	23.5,23.4 0.5,0.4 "/>
<polygon fill="none" stroke="#B09743" stroke-width="0.75" stroke-linecap="round" stroke-linejoin="round" points="0.5,92.6 
	23.5,69.6 0.5,46.5 "/>
<polygon fill="none" stroke="#B09743" stroke-width="0.75" stroke-linecap="round" stroke-linejoin="round" points="0.5,138.6 
	23.5,115.6 0.5,92.6 "/>
</svg>
